lab/example/sim/dump_correct.vcd
$timescale 1ns $end
$scope module tb $end
$scope module dut $end
$var wire 1 ! clk $end
$var wire 1 " rst_n $end
$var wire 1 # valid_in $end
$var wire 1 $ valid_out $end
$var wire 16 % in_val $end
$var wire 16 & out_val $end
$var wire 8 ' gain $end
$var wire 8 ( shift $end
$var wire 8 ) offset $end
$upscope $end
$scope module TXCMP $end
$var wire 1 * error_flag $end
$var wire 16 + exp_val $end
$var wire 16 , act_val $end
$upscope $end
$upscope $end
$enddefinitions $end
$dumpvars
#0 0! 1" 0# 0$ bxxxxxxxxxxxxxxxx % bxxxxxxxxxxxxxxxx & b00000101 ' b00000011 ( b00000000 )
#0 0* b0000000000000000 + b0000000000000000 ,
$end
#2 1"
#5 1! 1# b0000000001100100 % b00000101 ' b00000011 ( b00000000 )
#10 0! 0#
#15 1! 1$ b0000000000111111 & b0000000000111111 + b0000000000111111 , 1# b0000000011001000 % b00000101 ' b00000011 ( b00000000 )
#20 0! 0# 0$
#25 1! 1$ b0000000001111101 & b0000000001111101 + b0000000001111101 , 1# b0000000111110100 % b00000101 ' b00000011 ( b00000000 )
#30 0! 0# 0$
#35 1! 1$ b0000000100111001 & b0000000100111001 + b0000000100111001 , 1# b0000001111101000 % b00000101 ' b00000011 ( b00000000 )
#40 0! 0# 0$
#45 1! 1$ b0000001001110001 & b0000001001110001 + b0000001001110001 , 1# b0000011111010000 % b00000101 ' b00000011 ( b00000000 )
#50 0! 0# 0$
#55 1! 1$ b0000010011100010 & b0000010011100010 + b0000010011100010 , 1# b0001001110001000 % b00000101 ' b00000011 ( b00000000 )
#60 0! 0# 0$
#65 1! 1$ b0000110000110101 & b0000110000110101 + b0000110000110101 , 1# b0010011100010000 % b00000101 ' b00000011 ( b00000000 )
#70 0! 0# 0$
#75 1! 1$ b0001100001101010 & b0001100001101010 + b0001100001101010 , 1# b0100111000100000 % b00000101 ' b00000011 ( b00000000 )
#80 0! 0# 0$
#85 1! 1$ b0011000011010100 & b0011000011010100 + b0011000011010100 , 1# b0111010100110000 % b00000101 ' b00000011 ( b00000000 )
#90 0! 0# 0$
#95 1! 1$ b0100100100111110 & b0100100100111110 + b0100100100111110 , 1# b1100001101010000 % b00000101 ' b00000011 ( b00000000 )
#100 0! 0# 0$
#105 1! 1$ b0111101000010010 & b0111101000010010 + b0111101000010010 , 0#
#110 0! 0# 0$
